^C:\USERS\ICUSTOMIZE\DOCUMENTS\VISUAL STUDIO 2010\PROJECTS\IMAGECLIPPER20081208\SRC\CV.LIB|C:\USERS\ICUSTOMIZE\DOCUMENTS\VISUAL STUDIO 2010\PROJECTS\IMAGECLIPPER20081208\SRC\RELEASE\IMAGECLIPPER.OBJ|C:\USERS\ICUSTOMIZE\DOCUMENTS\VISUAL STUDIO 2010\PROJECTS\IMAGECLIPPER20081208\SRC\RELEASE\STDAFX.OBJ
/ERRORREPORT:PROMPT /OUT:"C:\Users\iCustomize\Documents\Visual Studio 2010\Projects\imageclipper20081208\src\Release\imageclipper.exe" /INCREMENTAL:NO /NOLOGO kernel32.lib user32.lib gdi32.lib winspool.lib comdlg32.lib advapi32.lib shell32.lib ole32.lib oleaut32.lib uuid.lib odbc32.lib odbccp32.lib cv210d.lib cxcore210d.lib highgui210d.lib cv210.lib cxcore210.lib cvaux210.lib highgui210.lib kernel32.lib user32.lib gdi32.lib winspool.lib comdlg32.lib advapi32.lib shell32.lib ole32.lib oleaut32.lib uuid.lib odbc32.lib odbccp32.lib /MANIFEST /ManifestFile:"Release\imageclipper.exe.intermediate.manifest" /MANIFESTUAC:"level='asInvoker' uiAccess='false'" /DEBUG /PDB:"C:\Users\iCustomize\Documents\Visual Studio 2010\Projects\imageclipper20081208\src\Release\imageclipper.pdb" /SUBSYSTEM:CONSOLE /OPT:REF /OPT:ICF /LTCG /TLBID:1 /DYNAMICBASE /NXCOMPAT /IMPLIB:"C:\Users\iCustomize\Documents\Visual Studio 2010\Projects\imageclipper20081208\src\Release\imageclipper.lib" /MACHINE:X86 Release\imageclipper.obj
Release\stdafx.obj
cv.lib
